Error Type,Description,Count
E101,indentation contains mixed spaces and tabs,20
W191,indentation contains tabs,14
E231,"missing whitespace after ','",13
W291,trailing whitespace,11
E265,block comment should start with '# ',7
E131,continuation line unaligned for hanging indent,3
E225,missing whitespace around operator,3
W391,blank line at end of file,3
E731,"do not assign a lambda expression, use a def",2
E303,too many blank lines (3),2
E722,do not use bare 'except',2
E221,multiple spaces before operator,1
E201,whitespace after '[',1
W292,no newline at end of file,1
E0602,undefined name 'unicode',1
