Error Type,Description,Count
E265,block comment should start with '# ',347
E231,"missing whitespace after ','",112
W291,trailing whitespace,103
E402,module level import not at top of file,75
E128,continuation line under-indented for visual indent,53
E251,unexpected spaces around keyword / parameter equals,47
E302,"expected 2 blank lines, found 1",42
E116,unexpected indentation (comment),38
E303,too many blank lines (3),29
W0401,'from dataiku.customrecipe import *' used; unable to detect undefined names,28
E225,missing whitespace around operator,25
E722,do not use bare 'except',23
E266,too many leading '#' for block comment,16
E261,at least two spaces before inline comment,13
W605,invalid escape sequence '\s',12
E203,whitespace before ':',11
E401,multiple imports on one line,11
W0611,'dataiku.pandasutils as pdu' imported but unused,11
E712,comparison to True should be 'if cond is not True:' or 'if not cond:',8
E701,multiple statements on one line (colon),6
E117,over-indented,6
E211,whitespace before '(',5
E202,whitespace before '}',4
W0404,redefinition of unused 're' from line 8,4
E305,"expected 2 blank lines after class or function definition, found 1",4
E262,inline comment should start with '# ',4
E0100,SyntaxError: invalid syntax,4
C901,'process_single_mention' is too complex (13),4
E124,closing bracket does not match visual indentation,3
E222,multiple spaces after operator,3
W0612,local variable 'e' is assigned to but never used,3
E201,whitespace after '{',2
W292,no newline at end of file,2
W391,blank line at end of file,1
E0602,undefined name 'get_input_names_for_role',1
E713,test for membership should be 'not in',1
E114,indentation is not a multiple of four (comment),1
E227,missing whitespace around bitwise or shift operator,1
